xof 0303txt 0032
template XSkinMeshHeader {
 <3cf169ce-ff7c-44ab-93c0-f78f62d172e2>
 WORD nMaxSkinWeightsPerVertex;
 WORD nMaxSkinWeightsPerFace;
 WORD nBones;
}

template VertexDuplicationIndices {
 <b8d65549-d7c9-4995-89cf-53a9a8b031e3>
 DWORD nIndices;
 DWORD nOriginalVertices;
 array DWORD indices[nIndices];
}

template SkinWeights {
 <6f0d123b-bad2-4167-a0d0-80224f25fabb>
 STRING transformNodeName;
 DWORD nWeights;
 array DWORD vertexIndices[nWeights];
 array FLOAT weights[nWeights];
 Matrix4x4 matrixOffset;
}

template FVFData {
 <b6e70a0e-8ef9-4e83-94ad-ecc8b0c04897>
 DWORD dwFVF;
 DWORD nDWords;
 array DWORD data[nDWords];
}

template EffectInstance {
 <e331f7e4-0559-4cc2-8e99-1cec1657928f>
 STRING EffectFilename;
 [...]
}

template EffectParamFloats {
 <3014b9a0-62f5-478c-9b86-e4ac9f4e418b>
 STRING ParamName;
 DWORD nFloats;
 array FLOAT Floats[nFloats];
}

template EffectParamString {
 <1dbc4c88-94c1-46ee-9076-2c28818c9481>
 STRING ParamName;
 STRING Value;
}

template EffectParamDWord {
 <e13963bc-ae51-4c5d-b00f-cfa3a9d97ce5>
 STRING ParamName;
 DWORD Value;
}


Frame GeoSphere01 {
 

 FrameTransformMatrix {
  0.400000,0.000000,0.000000,0.000000,0.000000,0.400000,0.000000,0.000000,0.000000,0.000000,0.400000,0.000000,0.000000,0.000000,0.000000,1.000000;;
 }

 Mesh  {
  95;
  -1.456024;20.000000;1.456022;,
  -1.456022;8.944273;19.344566;,
  -18.469040;8.944272;6.983886;,
  -11.379760;8.558327;-12.202835;,
  8.467718;8.558328;-12.202832;,
  15.556993;8.944273;6.983889;,
  -11.970645;-24.640039;15.928160;,
  -18.469038;-24.640038;-4.071840;,
  -1.456020;-24.640041;-16.432520;,
  15.556993;-24.640038;-4.071842;,
  9.058595;-24.640038;15.928164;,
  -1.456023;18.653412;8.670604;,
  -1.456023;14.794979;14.913680;,
  -8.317500;18.653412;3.685450;,
  -14.255017;14.794978;5.614666;,
  -5.696649;18.653412;-4.380699;,
  -9.366236;14.794977;-9.431456;,
  2.784603;18.653412;-4.380698;,
  6.454191;14.794978;-9.431453;,
  5.405452;18.653414;3.685451;,
  11.342970;14.794979;5.614669;,
  -8.317498;10.336121;17.143110;,
  -14.255019;10.336121;12.829248;,
  -18.495642;10.336120;-0.222054;,
  -16.227713;10.336120;-7.202024;,
  -5.125608;10.336121;-15.268173;,
  2.213568;10.336121;-15.268172;,
  13.315667;10.336121;-7.202022;,
  15.583596;10.336121;-0.222052;,
  11.342970;10.336122;12.829249;,
  5.405453;10.336122;17.143110;,
  -5.696648;0.106973;20.750401;,
  -9.366236;-6.136104;19.558079;,
  -21.116493;0.106972;3.385239;,
  -21.116493;-6.136105;-0.473194;,
  -9.366235;0.106971;-16.646036;,
  -5.696646;-6.136105;-17.838358;,
  13.315668;0.106972;-11.660881;,
  15.583598;-6.136103;-8.539344;,
  15.583595;0.106974;11.451391;,
  13.315665;-6.136103;14.572932;,
  2.784601;0.106974;20.750404;,
  6.454187;-6.136104;19.558084;,
  -18.495644;0.106972;11.451386;,
  -16.227713;-6.136104;14.572926;,
  -16.227711;0.106971;-11.660882;,
  -18.495640;-6.136105;-8.539343;,
  6.454191;0.106972;-16.646034;,
  2.784605;-6.136105;-17.838356;,
  18.204451;0.106973;3.385241;,
  18.204451;-6.136103;-0.473194;,
  -16.227711;-26.031887;10.114069;,
  -18.495640;-26.031887;3.134098;,
  -14.255014;-26.031889;-9.917205;,
  -8.317496;-26.031889;-14.231066;,
  5.405455;-26.031889;-14.231067;,
  11.342973;-26.031889;-9.917206;,
  15.583597;-26.031887;3.134100;,
  13.315665;-26.031887;10.114073;,
  2.213561;-26.031889;18.180222;,
  -5.125612;-26.031887;18.180220;,
  -8.423652;16.108438;11.046139;,
  -12.729881;16.108438;-2.207078;,
  -1.456022;16.108437;-10.398016;,
  9.817836;16.108440;-2.207076;,
  5.511604;16.108440;11.046140;,
  -1.456024;-6.413225;21.165136;,
  -20.200500;-6.413227;7.546473;,
  -13.040747;-6.413228;-14.488983;,
  10.128704;-6.413227;-14.488985;,
  17.288458;-6.413226;7.546476;,
  -13.040747;0.384094;17.401028;,
  -20.200500;0.384093;-4.634428;,
  -1.456020;0.384093;-18.253090;,
  17.288458;0.384095;-4.634427;,
  10.128701;0.384096;17.401031;,
  -8.775352;14.409033;-8.618173;,
  -15.636827;9.950175;-6.388743;,
  -15.636826;-0.278973;-10.847601;,
  -8.775351;-0.278973;-15.832754;,
  -4.534725;9.950176;-14.454892;,
  5.863308;14.409034;-8.618171;,
  1.622683;9.950176;-14.454891;,
  5.863308;-0.278972;-15.832752;,
  12.724783;-0.278972;-10.847599;,
  12.724783;9.950176;-6.388740;,
  -1.456024;20.000000;1.456022;,
  -1.456024;20.000000;1.456022;,
  -5.696649;18.653412;-4.380699;,
  -9.366236;14.794977;-9.431456;,
  -1.456024;20.000000;1.456022;,
  -1.456024;20.000000;1.456022;,
  -5.696646;-6.136105;-17.838358;,
  -8.317496;-26.031889;-14.231066;,
  -9.366235;0.106971;-16.646036;;
  155;
  3;0,13,11;,
  3;11,61,12;,
  3;11,13,61;,
  3;13,14,61;,
  3;12,21,1;,
  3;12,61,21;,
  3;61,22,21;,
  3;61,14,22;,
  3;14,2,22;,
  3;86,15,13;,
  3;13,62,14;,
  3;13,15,62;,
  3;15,16,62;,
  3;14,23,2;,
  3;14,62,23;,
  3;62,24,23;,
  3;62,16,24;,
  3;76,3,77;,
  3;87,17,88;,
  3;88,63,89;,
  3;88,17,63;,
  3;17,18,63;,
  3;76,80,3;,
  3;89,63,25;,
  3;63,26,25;,
  3;63,18,26;,
  3;81,4,82;,
  3;90,19,17;,
  3;17,64,18;,
  3;17,19,64;,
  3;19,20,64;,
  3;81,85,4;,
  3;18,64,27;,
  3;64,28,27;,
  3;64,20,28;,
  3;20,5,28;,
  3;91,11,19;,
  3;19,65,20;,
  3;19,11,65;,
  3;11,12,65;,
  3;20,29,5;,
  3;20,65,29;,
  3;65,30,29;,
  3;65,12,30;,
  3;12,1,30;,
  3;1,31,41;,
  3;41,66,42;,
  3;41,31,66;,
  3;31,32,66;,
  3;42,59,10;,
  3;42,66,59;,
  3;66,60,59;,
  3;66,32,60;,
  3;32,6,60;,
  3;2,33,43;,
  3;43,67,44;,
  3;43,33,67;,
  3;33,34,67;,
  3;44,51,6;,
  3;44,67,51;,
  3;67,52,51;,
  3;67,34,52;,
  3;34,7,52;,
  3;3,79,78;,
  3;45,68,46;,
  3;45,35,68;,
  3;35,36,68;,
  3;46,53,7;,
  3;46,68,53;,
  3;68,54,53;,
  3;68,36,54;,
  3;92,8,93;,
  3;4,84,83;,
  3;47,69,48;,
  3;47,37,69;,
  3;37,38,69;,
  3;48,55,8;,
  3;48,69,55;,
  3;69,56,55;,
  3;69,38,56;,
  3;38,9,56;,
  3;5,39,49;,
  3;49,70,50;,
  3;49,39,70;,
  3;39,40,70;,
  3;50,57,9;,
  3;50,70,57;,
  3;70,58,57;,
  3;70,40,58;,
  3;40,10,58;,
  3;6,32,44;,
  3;44,71,43;,
  3;44,32,71;,
  3;32,31,71;,
  3;43,22,2;,
  3;43,71,22;,
  3;71,21,22;,
  3;71,31,21;,
  3;31,1,21;,
  3;7,34,46;,
  3;46,72,45;,
  3;46,34,72;,
  3;34,33,72;,
  3;78,77,3;,
  3;45,72,24;,
  3;72,23,24;,
  3;72,33,23;,
  3;33,2,23;,
  3;8,92,48;,
  3;48,73,47;,
  3;48,92,73;,
  3;92,94,73;,
  3;83,82,4;,
  3;47,73,26;,
  3;73,25,26;,
  3;73,94,25;,
  3;79,3,80;,
  3;9,38,50;,
  3;50,74,49;,
  3;50,38,74;,
  3;38,37,74;,
  3;49,28,5;,
  3;49,74,28;,
  3;74,27,28;,
  3;74,37,27;,
  3;84,4,85;,
  3;10,40,42;,
  3;42,75,41;,
  3;42,40,75;,
  3;40,39,75;,
  3;41,30,1;,
  3;41,75,30;,
  3;75,29,30;,
  3;75,39,29;,
  3;39,5,29;,
  3;16,77,24;,
  3;77,16,76;,
  3;24,78,45;,
  3;78,24,77;,
  3;45,79,35;,
  3;79,45,78;,
  3;94,80,25;,
  3;80,94,79;,
  3;25,76,89;,
  3;76,25,80;,
  3;18,82,26;,
  3;82,18,81;,
  3;26,83,47;,
  3;83,26,82;,
  3;47,84,37;,
  3;84,47,83;,
  3;37,85,27;,
  3;85,37,84;,
  3;27,81,18;,
  3;81,27,85;;

  MeshNormals  {
   106;
   -0.000000;1.000000;-0.000000;,
   -0.340963;0.933526;0.110786;,
   -0.000000;0.933526;0.358510;,
   -0.351696;0.801242;0.484068;,
   -0.000000;0.738523;0.674228;,
   -0.641229;0.738523;0.208348;,
   -0.360305;0.474375;0.803211;,
   -0.000000;0.399016;0.916944;,
   -0.652559;0.474375;0.590876;,
   -0.872066;0.399016;0.283351;,
   -0.210727;0.933526;-0.290041;,
   -0.569056;0.801242;-0.184897;,
   -0.358817;0.792050;-0.493870;,
   -0.875240;0.474375;-0.094464;,
   -0.797606;0.489608;-0.352292;,
   -0.468576;0.603731;-0.644939;,
   -0.538966;0.399015;-0.741823;,
   -0.675544;0.431438;-0.597915;,
   0.210727;0.933526;-0.290041;,
   0.000000;0.801242;-0.598341;,
   0.358817;0.792050;-0.493870;,
   -0.359896;0.431438;-0.827246;,
   -0.088576;0.489608;-0.867432;,
   0.088577;0.489608;-0.867432;,
   0.468576;0.603731;-0.644939;,
   0.538966;0.399016;-0.741823;,
   0.359896;0.431438;-0.827246;,
   0.340963;0.933526;0.110786;,
   0.569056;0.801242;-0.184897;,
   0.641229;0.738523;0.208348;,
   0.675544;0.431438;-0.597915;,
   0.797605;0.489608;-0.352292;,
   0.875240;0.474375;-0.094464;,
   0.872066;0.399016;0.283351;,
   0.351696;0.801242;0.484068;,
   0.652559;0.474375;0.590876;,
   0.360305;0.474375;0.803211;,
   -0.215392;0.111219;0.970174;,
   0.215391;0.111219;0.970174;,
   -0.000000;-0.068905;0.997623;,
   0.399351;-0.058679;0.914918;,
   -0.399351;-0.058679;0.914918;,
   0.163643;-0.140989;0.976393;,
   0.582568;-0.132941;0.801836;,
   -0.163643;-0.140989;0.976393;,
   -0.582568;-0.132941;0.801836;,
   -0.989250;0.111219;0.094951;,
   -0.856130;0.111219;0.504650;,
   -0.948796;-0.068905;0.308283;,
   -0.746733;-0.058679;0.662531;,
   -0.993545;-0.058679;-0.097080;,
   -0.878036;-0.140989;0.457356;,
   -0.979173;-0.140989;0.146088;,
   -0.942615;-0.132941;-0.306274;,
   -0.496348;0.200649;-0.844617;,
   -0.649899;0.200649;-0.733056;,
   -0.779631;0.072468;-0.622033;,
   -0.586388;-0.068905;-0.807094;,
   -0.860857;-0.058679;-0.505452;,
   -0.350669;0.072469;-0.933691;,
   -0.214694;-0.058679;-0.974917;,
   -0.706299;-0.140989;-0.693731;,
   -0.441519;-0.140989;-0.886105;,
   -0.000000;-0.132941;-0.991124;,
   0.649899;0.200649;-0.733056;,
   0.496348;0.200649;-0.844617;,
   0.350669;0.072469;-0.933691;,
   0.586388;-0.068905;-0.807094;,
   0.214694;-0.058679;-0.974917;,
   0.779631;0.072469;-0.622033;,
   0.860857;-0.058679;-0.505452;,
   0.441519;-0.140989;-0.886105;,
   0.706300;-0.140989;-0.693731;,
   0.942615;-0.132941;-0.306274;,
   0.856130;0.111219;0.504650;,
   0.989250;0.111219;0.094951;,
   0.948796;-0.068905;0.308283;,
   0.993545;-0.058679;-0.097080;,
   0.746733;-0.058679;0.662531;,
   0.979173;-0.140989;0.146088;,
   0.878036;-0.140989;0.457356;,
   -0.583010;0.127212;0.802444;,
   -0.943330;0.127212;-0.306506;,
   0.000000;0.127212;-0.991876;,
   0.943330;0.127212;-0.306506;,
   0.583010;0.127212;0.802444;,
   0.303345;-0.756497;-0.579391;,
   0.303346;-0.756497;-0.579390;,
   0.835867;0.219345;-0.503204;,
   0.835867;0.219345;-0.503204;,
   0.210670;0.933563;0.289962;,
   0.210670;0.933563;0.289963;,
   -0.736872;0.219345;0.639459;,
   -0.736872;0.219345;0.639459;,
   -0.644772;-0.756497;0.109458;,
   -0.644773;-0.756497;0.109457;,
   0.644772;-0.756497;0.109458;,
   0.644773;-0.756497;0.109457;,
   0.736872;0.219345;0.639459;,
   0.736871;0.219344;0.639460;,
   -0.210670;0.933563;0.289962;,
   -0.210670;0.933563;0.289963;,
   -0.835867;0.219345;-0.503203;,
   -0.835867;0.219345;-0.503204;,
   -0.303346;-0.756497;-0.579391;,
   -0.303346;-0.756497;-0.579391;;
   155;
   3;0,1,2;,
   3;2,3,4;,
   3;2,1,3;,
   3;1,5,3;,
   3;4,6,7;,
   3;4,3,6;,
   3;3,8,6;,
   3;3,5,8;,
   3;5,9,8;,
   3;0,10,1;,
   3;1,11,5;,
   3;1,10,11;,
   3;10,12,11;,
   3;5,13,9;,
   3;5,11,13;,
   3;11,14,13;,
   3;11,12,14;,
   3;15,16,17;,
   3;0,18,10;,
   3;10,19,12;,
   3;10,18,19;,
   3;18,20,19;,
   3;15,21,16;,
   3;12,19,22;,
   3;19,23,22;,
   3;19,20,23;,
   3;24,25,26;,
   3;0,27,18;,
   3;18,28,20;,
   3;18,27,28;,
   3;27,29,28;,
   3;24,30,25;,
   3;20,28,31;,
   3;28,32,31;,
   3;28,29,32;,
   3;29,33,32;,
   3;0,2,27;,
   3;27,34,29;,
   3;27,2,34;,
   3;2,4,34;,
   3;29,35,33;,
   3;29,34,35;,
   3;34,36,35;,
   3;34,4,36;,
   3;4,7,36;,
   3;7,37,38;,
   3;38,39,40;,
   3;38,37,39;,
   3;37,41,39;,
   3;40,42,43;,
   3;40,39,42;,
   3;39,44,42;,
   3;39,41,44;,
   3;41,45,44;,
   3;9,46,47;,
   3;47,48,49;,
   3;47,46,48;,
   3;46,50,48;,
   3;49,51,45;,
   3;49,48,51;,
   3;48,52,51;,
   3;48,50,52;,
   3;50,53,52;,
   3;16,54,55;,
   3;56,57,58;,
   3;56,59,57;,
   3;59,60,57;,
   3;58,61,53;,
   3;58,57,61;,
   3;57,62,61;,
   3;57,60,62;,
   3;60,63,62;,
   3;25,64,65;,
   3;66,67,68;,
   3;66,69,67;,
   3;69,70,67;,
   3;68,71,63;,
   3;68,67,71;,
   3;67,72,71;,
   3;67,70,72;,
   3;70,73,72;,
   3;33,74,75;,
   3;75,76,77;,
   3;75,74,76;,
   3;74,78,76;,
   3;77,79,73;,
   3;77,76,79;,
   3;76,80,79;,
   3;76,78,80;,
   3;78,43,80;,
   3;45,41,49;,
   3;49,81,47;,
   3;49,41,81;,
   3;41,37,81;,
   3;47,8,9;,
   3;47,81,8;,
   3;81,6,8;,
   3;81,37,6;,
   3;37,7,6;,
   3;53,50,58;,
   3;58,82,56;,
   3;58,50,82;,
   3;50,46,82;,
   3;55,17,16;,
   3;56,82,14;,
   3;82,13,14;,
   3;82,46,13;,
   3;46,9,13;,
   3;63,60,68;,
   3;68,83,66;,
   3;68,60,83;,
   3;60,59,83;,
   3;65,26,25;,
   3;66,83,23;,
   3;83,22,23;,
   3;83,59,22;,
   3;54,16,21;,
   3;73,70,77;,
   3;77,84,75;,
   3;77,70,84;,
   3;70,69,84;,
   3;75,32,33;,
   3;75,84,32;,
   3;84,31,32;,
   3;84,69,31;,
   3;64,25,30;,
   3;43,78,40;,
   3;40,85,38;,
   3;40,78,85;,
   3;78,74,85;,
   3;38,36,7;,
   3;38,85,36;,
   3;85,35,36;,
   3;85,74,35;,
   3;74,33,35;,
   3;86,86,86;,
   3;87,87,87;,
   3;88,88,88;,
   3;89,89,89;,
   3;90,90,90;,
   3;91,91,91;,
   3;92,92,92;,
   3;93,93,93;,
   3;94,94,94;,
   3;95,95,95;,
   3;96,96,96;,
   3;97,97,97;,
   3;98,98,98;,
   3;99,99,99;,
   3;100,100,100;,
   3;101,101,101;,
   3;102,102,102;,
   3;103,103,103;,
   3;104,104,104;,
   3;105,105,105;;
  }

  MeshMaterialList  {
   1;
   155;
   0,
   0,
   0,
   0,
   0,
   0,
   0,
   0,
   0,
   0,
   0,
   0,
   0,
   0,
   0,
   0,
   0,
   0,
   0,
   0,
   0,
   0,
   0,
   0,
   0,
   0,
   0,
   0,
   0,
   0,
   0,
   0,
   0,
   0,
   0,
   0,
   0,
   0,
   0,
   0,
   0,
   0,
   0,
   0,
   0,
   0,
   0,
   0,
   0,
   0,
   0,
   0,
   0,
   0,
   0,
   0,
   0,
   0,
   0,
   0,
   0,
   0,
   0,
   0,
   0,
   0,
   0,
   0,
   0,
   0,
   0,
   0,
   0,
   0,
   0,
   0,
   0,
   0,
   0,
   0,
   0,
   0,
   0,
   0,
   0,
   0,
   0,
   0,
   0,
   0,
   0,
   0,
   0,
   0,
   0,
   0,
   0,
   0,
   0,
   0,
   0,
   0,
   0,
   0,
   0,
   0,
   0,
   0,
   0,
   0,
   0,
   0,
   0,
   0,
   0,
   0,
   0,
   0,
   0,
   0,
   0,
   0,
   0,
   0,
   0,
   0,
   0,
   0,
   0,
   0,
   0,
   0,
   0,
   0,
   0,
   0,
   0,
   0,
   0,
   0,
   0,
   0,
   0,
   0,
   0,
   0,
   0,
   0,
   0,
   0,
   0,
   0,
   0,
   0,
   0;

   Material {
    0.600000;0.894118;0.600000;1.000000;;
    0.000000;
    0.600000;0.894118;0.600000;;
    0.000000;0.000000;0.000000;;
   }
  }

  MeshTextureCoords  {
   95;
   0.600000;0.000000;,
   0.500000;0.352416;,
   0.700000;0.352416;,
   0.900000;0.352416;,
   0.100000;0.352416;,
   0.300000;0.352416;,
   0.600000;0.647584;,
   0.800000;0.647584;,
   0.000000;0.647584;,
   0.200000;0.647584;,
   0.400000;0.647584;,
   0.500000;0.117472;,
   0.500000;0.234944;,
   0.700000;0.117472;,
   0.700000;0.234944;,
   0.900000;0.117472;,
   0.900000;0.234944;,
   0.100000;0.117472;,
   0.100000;0.234944;,
   0.300000;0.117472;,
   0.300000;0.234944;,
   0.565623;0.327121;,
   0.634377;0.327121;,
   0.765623;0.327121;,
   0.834377;0.327121;,
   -0.034377;0.327121;,
   0.034377;0.327121;,
   0.165623;0.327121;,
   0.234377;0.327121;,
   0.365623;0.327121;,
   0.434377;0.327121;,
   0.534432;0.450115;,
   0.565567;0.549885;,
   0.734432;0.450115;,
   0.765567;0.549885;,
   0.934433;0.450115;,
   0.965568;0.549885;,
   0.134433;0.450115;,
   0.165568;0.549885;,
   0.334433;0.450115;,
   0.365568;0.549885;,
   0.465568;0.450115;,
   0.434433;0.549885;,
   0.665568;0.450115;,
   0.634432;0.549885;,
   0.865568;0.450115;,
   0.834432;0.549885;,
   0.065568;0.450115;,
   0.034433;0.549885;,
   0.265568;0.450115;,
   0.234432;0.549885;,
   0.665623;0.672879;,
   0.734377;0.672879;,
   0.865623;0.672879;,
   0.934377;0.672879;,
   0.065623;0.672879;,
   0.134377;0.672879;,
   0.265623;0.672879;,
   0.334377;0.672879;,
   0.465623;0.672879;,
   0.534377;0.672879;,
   0.600000;0.201939;,
   0.800000;0.201939;,
   0.000000;0.201939;,
   0.200000;0.201939;,
   0.400000;0.201939;,
   0.500000;0.554355;,
   0.700000;0.554355;,
   0.900000;0.554355;,
   0.100000;0.554355;,
   0.300000;0.554355;,
   0.600000;0.445645;,
   0.800000;0.445645;,
   0.000000;0.445645;,
   0.200000;0.445645;,
   0.400000;0.445645;,
   0.900000;0.234944;,
   0.834377;0.327121;,
   0.865568;0.450115;,
   0.934433;0.450115;,
   0.965623;0.327121;,
   0.100000;0.234944;,
   0.034377;0.327121;,
   0.065568;0.450115;,
   0.134433;0.450115;,
   0.165623;0.327121;,
   0.800000;0.000000;,
   0.000000;0.000000;,
   -0.100000;0.117472;,
   -0.100000;0.234944;,
   0.200000;0.000000;,
   0.400000;0.000000;,
   -0.034432;0.549885;,
   -0.065623;0.672879;,
   -0.065567;0.450115;;
  }
 }
}

AnimationSet teste1 {
 

 Animation Anim-GeoSphere01 {
  
  { GeoSphere01 }

  AnimationKey {
   0;
   14;
   0;4;-1.000000,0.000000,0.000000,0.000000;;,
   1;4;-1.000000,0.000000,0.000000,0.000000;;,
   2;4;-1.000000,0.000000,0.000000,0.000000;;,
   3;4;-1.000000,0.000000,0.000000,0.000000;;,
   4;4;-1.000000,0.000000,0.000000,0.000000;;,
   5;4;-1.000000,0.000000,0.000000,0.000000;;,
   6;4;-1.000000,0.000000,0.000000,0.000000;;,
   7;4;-1.000000,0.000000,0.000000,0.000000;;,
   8;4;-1.000000,0.000000,0.000000,0.000000;;,
   9;4;-1.000000,0.000000,0.000000,0.000000;;,
   10;4;-1.000000,0.000000,0.000000,0.000000;;,
   11;4;-1.000000,0.000000,0.000000,0.000000;;,
   12;4;-1.000000,0.000000,0.000000,0.000000;;,
   13;4;-1.000000,0.000000,0.000000,0.000000;;;
  }

  AnimationKey {
   1;
   14;
   0;3;0.400000,0.400000,0.400000;;,
   1;3;0.400000,0.400000,0.400000;;,
   2;3;0.400000,0.400000,0.400000;;,
   3;3;0.400000,0.400000,0.400000;;,
   4;3;0.400000,0.400000,0.400000;;,
   5;3;0.400000,0.400000,0.400000;;,
   6;3;0.400000,0.400000,0.400000;;,
   7;3;0.400000,0.400000,0.400000;;,
   8;3;0.400000,0.400000,0.400000;;,
   9;3;0.400000,0.400000,0.400000;;,
   10;3;0.400000,0.400000,0.400000;;,
   11;3;0.400000,0.400000,0.400000;;,
   12;3;0.400000,0.400000,0.400000;;,
   13;3;0.400000,0.400000,0.400000;;;
  }

  AnimationKey {
   2;
   14;
   0;3;0.000000,0.000000,0.000000;;,
   1;3;0.000000,0.000000,0.000000;;,
   2;3;0.000000,0.000000,0.000000;;,
   3;3;0.000000,0.000000,0.000000;;,
   4;3;0.000000,0.000000,0.000000;;,
   5;3;0.000000,0.000000,0.000000;;,
   6;3;0.000000,0.000000,0.000000;;,
   7;3;0.000000,0.000000,0.000000;;,
   8;3;0.000000,0.000000,0.000000;;,
   9;3;0.000000,0.000000,0.000000;;,
   10;3;0.000000,0.000000,0.000000;;,
   11;3;0.000000,0.000000,0.000000;;,
   12;3;0.000000,0.000000,0.000000;;,
   13;3;0.000000,0.000000,0.000000;;;
  }
 }
}